---
"./spec/parser/embeds.spec.rb[1:1]": |2-
     Line | Content
   *    1 | -- key
   *    2 | value
   *    3 | -- key
   *    4 |     --    key
   *    5 |     more value
   *    6 |   --  key
   *    7 | -- key
   *    8 | -- key
   *    9 | -- --
   *   10 | --
   *   11 | -- --
